<?xml version="1.0" encoding="UTF-8"?>
<svg width="20px" height="20px" viewBox="0 0 20 20" version="1.1" xmlns="http://www.w3.org/2000/svg" xmlns:xlink="http://www.w3.org/1999/xlink">
    <!-- Generator: Sketch 54.1 (76490) - https://sketchapp.com -->
    <title>ManorRuin</title>
    <desc>Created with Sketch.</desc>
    <g id="ManorRuin" stroke="none" stroke-width="1" fill="none" fill-rule="evenodd">
        <circle id="path9" stroke="#9600AE" fill="#FFFFFF" fill-rule="nonzero" cx="10" cy="10" r="9.5"></circle>
        <g id="Group" transform="translate(4.000000, 4.000000)" fill="#9600AE" fill-rule="nonzero">
            <g id="g13">
                <path d="M3.21799691,11.0270786 C3.14861935,10.9799654 3.10650771,10.9092474 3.1061689,10.8392327 C3.10462889,10.5314554 3.0928478,10.5220038 2.55360474,10.398257 L2.04717935,10.2820251 L2.07297456,10.0666918 L2.09876977,9.85135838 L1.84401321,9.81869708 C1.37657323,9.75876985 1.2857664,9.73304546 1.2857664,9.66016932 C1.2857664,9.62134187 1.23571599,9.57538482 1.1744851,9.55786911 C1.1132696,9.54043048 0.972158264,9.49871265 0.860876965,9.46518423 L0.658550131,9.40429354 L0.647847044,7.87643824 L0.637143958,6.34859257 L2.1652983,6.33529682 L3.69344495,6.32200107 L3.70499504,5.82834329 L3.71662213,5.33468551 L2.17475398,5.33468551 C0.724662865,5.33468551 0.634225634,5.32986821 0.655500906,5.24604717 C0.667975007,5.19729608 0.838177182,4.55366608 1.03379726,3.81571331 L1.38947084,2.47397927 L3.04727883,1.42595608 C3.95907399,0.849546705 4.73472436,0.376767113 4.77094545,0.375350827 C4.80713574,0.374387367 4.86038167,0.408301168 4.88920301,0.451753227 C4.92955133,0.512643916 5.0116571,0.528155626 5.24662449,0.51958083 C5.54947564,0.508501037 5.55223996,0.509560843 5.63418402,0.670632132 C5.69955755,0.799099925 5.73774986,0.827907387 5.81787671,0.809177719 C5.87354816,0.796171006 6.03129933,0.769675848 6.16849904,0.750310297 L6.41795796,0.715047651 L6.4980771,0.910967297 C6.57484672,1.09861082 6.59760811,1.11451755 7.03768976,1.28757428 L7.49718327,1.46826162 L7.51743444,1.83805695 L7.5376856,2.20785227 L7.78047626,2.299381 C7.91401074,2.34967362 8.12613976,2.42760792 8.25188177,2.47251481 L8.48048892,2.55411989 L8.50859414,2.94439838 L8.53669937,3.33467687 L8.89539137,3.63574857 L9.25408337,3.93682991 L9.26594146,4.24187106 L9.27779956,4.54692186 L9.72291705,4.70502569 L10.1680345,4.86312952 L10.1803546,5.09887861 L10.1926747,5.33461807 L9.23806724,5.33461807 L8.28345203,5.33461807 L8.29500212,5.82827585 L8.30655221,6.32193362 L8.55777444,6.3369636 C8.80851927,6.35199358 8.80940477,6.35257166 9.02918765,6.6564374 L9.24938633,6.96090048 L9.48733365,6.89943171 C9.70152628,6.84412909 9.75140728,6.8487537 9.98707539,6.94615954 C10.1310666,7.00570138 10.3777072,7.06908743 10.5351658,7.08701743 L10.8214464,7.11958239 L10.88836,7.43372824 C10.9352533,7.65397526 10.9479585,7.84609887 10.9307103,8.07647186 C10.9067631,8.39701509 10.9103051,8.4132494 11.0744012,8.7383498 C11.1669174,8.92164812 11.2694052,9.08448254 11.3021382,9.10019658 C11.3905503,9.14268517 11.3906196,10.6002657 11.3022152,10.6002657 C11.2694899,10.6002657 11.168211,10.6489204 11.0770808,10.7083274 C10.9263598,10.8066196 10.84102,10.8171791 10.1323217,10.8252433 C9.35379147,10.8339144 9.35316007,10.8339144 9.21050101,10.9703404 L9.06773416,11.1065833 L8.31283546,11.1065833 L7.55792907,11.1065833 L7.55792907,8.20742538 L7.55792907,5.30827707 L6.79881843,4.35943249 C6.38131336,3.83757423 6.02149715,3.4105879 5.99923627,3.4105879 C5.97698309,3.4105879 5.61751339,3.83801742 5.20043952,4.36042485 L4.4421143,5.31025216 L4.4421143,8.20841775 L4.4421143,11.1065833 L3.8857155,11.1046564 C3.47167546,11.1027295 3.30084958,11.0832676 3.21804311,11.0270979 L3.21799691,11.0270786 Z M2.9448603,8.24598306 L2.9448603,7.25867715 L2.15578873,7.25867715 L1.36671715,7.25867715 L1.36671715,8.24598306 L1.36671715,9.23329861 L2.15578873,9.23329861 L2.9448603,9.23329861 L2.9448603,8.24598306 Z M10.6332415,8.24598306 L10.6332415,7.25867715 L9.84416993,7.25867715 L9.05509836,7.25867715 L9.05509836,8.24598306 L9.05509836,9.23329861 L9.84416993,9.23329861 L10.6332415,9.23329861 L10.6332415,8.24598306 Z" id="path814"></path>
                <path d="M6.64149846,10.7350249 C6.57620193,10.6087827 6.46532874,10.0379325 6.46532874,9.82783068 C6.46532874,9.81742531 6.35667316,9.74391329 6.22387019,9.66446636 L5.98241164,9.52006293 L6.00535782,9.23745113 C6.02583999,8.98516905 6.01305789,8.91421984 5.88263423,8.57651738 C5.76583199,8.27322972 5.73694905,8.13879811 5.73694905,7.89859783 C5.73694905,7.65149917 5.71477288,7.5538043 5.61022143,7.34127459 L5.48349381,7.08356824 L5.58699034,6.85534377 L5.69048688,6.62710967 L5.48855275,6.39860579 L5.28661862,6.17009228 L5.6432932,5.73122649 L5.99996778,5.2923607 L6.3742755,5.79758964 L6.74857553,6.30281857 L6.74857553,8.60348463 C6.74857553,9.86884518 6.74395549,10.9038617 6.73848845,10.9035148 C6.7330984,10.9031583 6.68928505,10.8274014 6.64152156,10.7350249 L6.64149846,10.7350249 Z" id="path816"></path>
            </g>
            <path d="M5.25137543,8.75230071 C5.25137543,7.45740046 5.26400353,6.397941 5.27948066,6.397941 C5.29495778,6.397941 5.35748999,6.45767554 5.41845138,6.53080218 L5.52927838,6.66366335 L5.42809956,6.8642076 L5.32692074,7.0647615 L5.47122761,7.3678661 C5.59278079,7.62319271 5.61553447,7.71787195 5.61553447,7.96834271 C5.61553447,8.19748247 5.64648872,8.35059558 5.75034716,8.63583763 C5.86728031,8.95690113 5.88282673,9.04633915 5.86755751,9.31035617 L5.84992437,9.61473254 L6.09689616,9.762431 C6.23273296,9.8436507 6.34400656,9.92303019 6.34417596,9.9387924 C6.34571597,10.1133329 6.44251345,10.6512905 6.48778212,10.7395917 C6.51989138,10.8022166 6.57560133,10.910471 6.61154522,10.9800906 L6.67691875,11.10667 L5.96412399,11.10667 L5.25133693,11.10667 L5.25137543,8.75230071 Z" id="path818"></path>
        </g>
    </g>
</svg>